Aula 12 - Análise de texto
…
O que há em uma palavra? (str_length, str_detect)

airports %>% slice(1) %>% pull(name)

## [1] "Lansdowne Airport"

airports <- airports %>% mutate(caracteres=str_length(name))

airports

## # A tibble: 1,458 x 9
##    faa   name                lat    lon   alt    tz dst   tzone       caracteres
##    <chr> <chr>             <dbl>  <dbl> <dbl> <dbl> <chr> <chr>            <int>
##  1 04G   Lansdowne Airport  41.1  -80.6  1044    -5 A     America/Ne~         17
##  2 06A   Moton Field Muni~  32.5  -85.7   264    -6 A     America/Ch~         29
##  3 06C   Schaumburg Regio~  42.0  -88.1   801    -6 A     America/Ch~         19
##  4 06N   Randall Airport    41.4  -74.4   523    -5 A     America/Ne~         15
##  5 09J   Jekyll Island Ai~  31.1  -81.4    11    -5 A     America/Ne~         21
##  6 0A9   Elizabethton Mun~  36.4  -82.2  1593    -5 A     America/Ne~         30
##  7 0G6   Williams County ~  41.5  -84.5   730    -5 A     America/Ne~         23
##  8 0G7   Finger Lakes Reg~  42.9  -76.8   492    -5 A     America/Ne~         29
##  9 0P2   Shoestring Aviat~  39.8  -76.6  1000    -5 U     America/Ne~         28
## 10 0S9   Jefferson County~  48.1 -123.    108    -8 A     America/Lo~         21
## # ... with 1,448 more rows
…
airports2 %>% group_by(string_field) %>%
  tally()

## # A tibble: 2 x 2
##   string_field     n
##   <lgl>        <int>
## 1 FALSE         1386
## 2 TRUE            72

airports %>% mutate(string_regional = str_detect(name, "Regional|Rgnl")) %>%
  filter(string_regional == TRUE) %>%
  select(name)

## # A tibble: 188 x 1
##    name                              
##    <chr>                             
##  1 Schaumburg Regional               
##  2 Finger Lakes Regional Airport     
##  3 Phoenix Regional Airport          
##  4 Apalachicola Regional Airport     
##  5 Abilene Rgnl                      
##  6 Aberdeen Regional Airport         
##  7 Southwest Georgia Regional Airport
##  8 Jimmy Carter Regional             
##  9 Waco Rgnl                         
## 10 Augusta Rgnl At Bush Fld          
## # ... with 178 more rows
airports %>% mutate(string_z = str_detect(name, "^Z")) %>%
  filter(string_z == TRUE) %>%
  select(name)

## # A tibble: 2 x 1
##   name                    
##   <chr>                   
## 1 Zachar Bay Seaplane Base
## 2 Zamperini Field Airport

airports %>% mutate(string_ffgg = str_detect(name, "[fg]{2,}")) %>%
  filter(string_ffgg == TRUE) %>%
  select(name)

## # A tibble: 21 x 1
##    name                           
##    <chr>                          
##  1 Jefferson County Intl          
##  2 Effingham Memorial Airport     
##  3 Jefferson County Airpark       
##  4 Griffin-Spalding County Airport
##  5 Biggs Aaf                      
##  6 Buffalo Niagara Intl           
##  7 Flagstaff Pulliam Airport      
##  8 McDuffie County Airport        
##  9 Jefferson City Memorial Airport
## 10 Coffman Cove Seaplane Base     
## # ... with 11 more rows

artigo <- tibble(paginas = pdf_text("https://cutt.ly/Sy4vi7F"))

artigo

## # A tibble: 32 x 1
##    paginas                                                                      
##    <chr>                                                                        
##  1 "    The World Cup and Presidential Popularity in Brazil*\r\n               ~
##  2 "                                                                 The World ~
##  3 "                                                            Pedro Santos Mu~
##  4 "                                                                The World C~
##  5 "                                                                   Pedro Sa~
##  6 "                                                                   The Worl~
##  7 "                                                     Pedro Santos Mundim, G~
##  8 "                                                                 The World ~
##  9 "                                                      Pedro Santos Mundim, ~
## 10 "                                                                           ~
## # ... with 22 more rows
…
Assis <- Assis %>% 
  mutate(text=iconv(text, from = "latin1", to = "UTF-8")) %>%
  select(-gutenberg_id) %>% 
  slice(21:8549) %>%
  rownames_to_column("Linha")

Assis_palavras <- Assis %>% unnest_tokens(palavra, text, strip_numeric = TRUE)

stopwords <- get_stopwords(language="pt") %>%
  rename(palavra=word) %>% add_row(palavra="é", lexicon="pessoal") %>% 
  add_row(palavra="à", lexicon="pessoal")

stopwords

## # A tibble: 205 x 2
##    palavra lexicon 
##    <chr>   <chr>   
##  1 de      snowball
##  2 a       snowball
##  3 o       snowball
##  4 que     snowball
##  5 e       snowball
##  6 do      snowball
##  7 da      snowball
##  8 em      snowball
##  9 um      snowball
## 10 para    snowball
## # ... with 195 more rows
…
Assis_stem %>% group_by(stem) %>%
  tally() %>%
  arrange(-n)

## # A tibble: 4,824 x 2
##    stem       n
##    <chr>  <int>
##  1 outr     372
##  2 capitú   341
##  3 mã       329
##  4 cas      269
##  5 á        262
##  6 elle     239
##  7 diss     218
##  8 tod      218
##  9 dias     191
## 10 fal      191
## # ... with 4,814 more rows
…
Assis_bigrams <- Assis %>% unnest_tokens(bigram, text,
                                       token="ngrams", n=2)

Assis_bigrams <- Assis_bigrams %>% 
  separate(bigram, c("palavra1", "palavra2"), sep=" ") %>% 
  anti_join(stopwords, by=c("palavra1"="palavra")) %>%
  anti_join(stopwords, by=c("palavra2"="palavra")) %>%
  unite("bigram", c(palavra1, palavra2), sep=" ", remove=F)

Assis_bigrams %>%
  group_by(bigram) %>%
  tally() %>%
  arrange(-n)

## # A tibble: 11,555 x 2
##    bigram            n
##    <chr>         <int>
##  1 NA NA          2472
##  2 josé dias       147
##  3 prima justina    47
##  4 tio cosme        45
##  5 outra vez        28
##  6 póde ser         27
##  7 á porta          26
##  8 outra cousa      26
##  9 padre cabral     22
## 10 alguma cousa     21
## # ... with 11,545 more rows
…
Assis_trigrams <- Assis_trigrams %>%
  separate(trigram, c("palavra1", "palavra2", "palavra3"), sep = " ") %>%
  anti_join(stopwords, by = c("palavra1" = "palavra")) %>%
  anti_join(stopwords, by = c("palavra2" = "palavra")) %>%
  anti_join(stopwords, by = c("palavra3" = "palavra")) %>%
  unite("trigram",
        c(palavra1, palavra2, palavra3),
        sep = " ",
        remove = F)
Assis_trigrams %>%
  group_by(trigram) %>%
  tally() %>%
  arrange(-n)

## # A tibble: 4,751 x 2
##    trigram                   n
##    <chr>                 <int>
##  1 NA NA NA               2696
##  2 josé dias achou           4
##  3 serás feliz bentinho      4
##  4 1 070 000                 3
##  5 aggregado josé dias       3
##  6 após alguns instantes     3
##  7 ceu oh flòr               3
##  8 dez libras esterlinas     3
##  9 oh flòr candida           3
## 10 póde ser tambem           3
## # ... with 4,741 more rows
…
